%YAML 1.1
%TAG !u! tag:unity3d.com,2011:
--- !u!1045 &1
EditorBuildSettings:
  m_ObjectHideFlags: 0
  serializedVersion: 2
  m_Scenes:
  - enabled: 1
    path: Assets/Scenes/Menu.unity
    guid: 39262add3a6c25a4ba89c3a7b4eb63a2
  - enabled: 1
    path: Assets/Scenes/Tank Game.unity
    guid: 66b7d5b5248f9ac44894eff2925a52b5
  m_configObjects: {}
